<?xml version="1.0" encoding="UTF-8" standalone="no"?>
<!-- Created with Inkscape (http://www.inkscape.org/) -->

<svg
   xmlns:dc="http://purl.org/dc/elements/1.1/"
   xmlns:cc="http://creativecommons.org/ns#"
   xmlns:rdf="http://www.w3.org/1999/02/22-rdf-syntax-ns#"
   xmlns:svg="http://www.w3.org/2000/svg"
   xmlns="http://www.w3.org/2000/svg"
   xmlns:sodipodi="http://sodipodi.sourceforge.net/DTD/sodipodi-0.dtd"
   xmlns:inkscape="http://www.inkscape.org/namespaces/inkscape"
   width="256"
   height="256"
   viewBox="0 0 67.733332 67.733335"
   version="1.1"
   id="svg8"
   inkscape:version="0.92.5 (2060ec1f9f, 2020-04-08)"
   sodipodi:docname="COMPILE.svg">
  <defs
     id="defs2">
    <marker
       inkscape:stockid="TriangleOutM"
       orient="auto"
       refY="0.0"
       refX="0.0"
       id="TriangleOutM"
       style="overflow:visible"
       inkscape:isstock="true">
      <path
         id="path1086"
         d="M 5.77,0.0 L -2.88,5.0 L -2.88,-5.0 L 5.77,0.0 z "
         style="fill-rule:evenodd;stroke:#f13700;stroke-width:1pt;stroke-opacity:1;fill:#f13700;fill-opacity:1"
         transform="scale(0.4)" />
    </marker>
  </defs>
  <sodipodi:namedview
     id="base"
     pagecolor="#1a1a1a"
     bordercolor="#666666"
     borderopacity="1.0"
     inkscape:pageopacity="0"
     inkscape:pageshadow="2"
     inkscape:zoom="3.0603482"
     inkscape:cx="139.777"
     inkscape:cy="131.23872"
     inkscape:document-units="mm"
     inkscape:current-layer="layer1"
     showgrid="false"
     units="px"
     inkscape:window-width="1920"
     inkscape:window-height="1015"
     inkscape:window-x="0"
     inkscape:window-y="28"
     inkscape:window-maximized="1" />
  <metadata
     id="metadata5">
    <rdf:RDF>
      <cc:Work
         rdf:about="">
        <dc:format>image/svg+xml</dc:format>
        <dc:type
           rdf:resource="http://purl.org/dc/dcmitype/StillImage" />
        <dc:title></dc:title>
      </cc:Work>
    </rdf:RDF>
  </metadata>
  <g
     inkscape:label="Ebene 1"
     inkscape:groupmode="layer"
     id="layer1"
     transform="translate(0,-229.26665)">
    <g
       id="g998"
       transform="translate(0,2.6580979)">
      <g
         transform="translate(7.1847586,17.982703)"
         id="g983">
        <rect
           style="opacity:1;fill:#999999;fill-opacity:1;stroke:none;stroke-width:20.21416283;stroke-linecap:butt;stroke-linejoin:miter;stroke-miterlimit:4;stroke-dasharray:none;stroke-dashoffset:0;stroke-opacity:1;paint-order:normal"
           id="rect897-3"
           width="6.3499999"
           height="6.3499999"
           x="17.156912"
           y="241.88919" />
        <rect
           style="opacity:1;fill:#999999;fill-opacity:1;stroke:none;stroke-width:20.21416283;stroke-linecap:butt;stroke-linejoin:miter;stroke-miterlimit:4;stroke-dasharray:none;stroke-dashoffset:0;stroke-opacity:1;paint-order:normal"
           id="rect897-6"
           width="6.3499999"
           height="38.099998"
           x="48.90691"
           y="235.53918" />
        <rect
           style="opacity:1;fill:#999999;fill-opacity:1;stroke:none;stroke-width:20.21416283;stroke-linecap:butt;stroke-linejoin:miter;stroke-miterlimit:4;stroke-dasharray:none;stroke-dashoffset:0;stroke-opacity:1;paint-order:normal"
           id="rect897-7"
           width="6.3499999"
           height="6.3499999"
           x="29.856913"
           y="241.88919" />
        <rect
           style="opacity:1;fill:#999999;fill-opacity:1;stroke:none;stroke-width:20.21416283;stroke-linecap:butt;stroke-linejoin:miter;stroke-miterlimit:4;stroke-dasharray:none;stroke-dashoffset:0;stroke-opacity:1;paint-order:normal"
           id="rect897-5"
           width="6.3499999"
           height="38.099998"
           x="-1.8930937"
           y="235.53912" />
        <rect
           style="opacity:1;fill:#999999;fill-opacity:1;stroke:none;stroke-width:20.21416283;stroke-linecap:butt;stroke-linejoin:miter;stroke-miterlimit:4;stroke-dasharray:none;stroke-dashoffset:0;stroke-opacity:1;paint-order:normal"
           id="rect897-6-3"
           width="6.3499999"
           height="6.3499999"
           x="10.806913"
           y="254.5892" />
        <rect
           style="opacity:1;fill:#999999;fill-opacity:1;stroke:none;stroke-width:20.21416283;stroke-linecap:butt;stroke-linejoin:miter;stroke-miterlimit:4;stroke-dasharray:none;stroke-dashoffset:0;stroke-opacity:1;paint-order:normal"
           id="rect897-6-5"
           width="6.3499999"
           height="6.3499999"
           x="23.506914"
           y="254.5892" />
        <rect
           style="opacity:1;fill:#999999;fill-opacity:1;stroke:none;stroke-width:20.21416283;stroke-linecap:butt;stroke-linejoin:miter;stroke-miterlimit:4;stroke-dasharray:none;stroke-dashoffset:0;stroke-opacity:1;paint-order:normal"
           id="rect897-6-6"
           width="6.3499999"
           height="6.3499999"
           x="36.206913"
           y="254.5892" />
        <rect
           style="opacity:1;fill:#999999;fill-opacity:1;stroke:none;stroke-width:20.21416283;stroke-linecap:butt;stroke-linejoin:miter;stroke-miterlimit:4;stroke-dasharray:none;stroke-dashoffset:0;stroke-opacity:1;paint-order:normal"
           id="rect897-6-2"
           width="44.450001"
           height="6.3499999"
           x="4.456913"
           y="267.28918" />
      </g>
      <path
         inkscape:connector-curvature="0"
         id="path985"
         d="m 14.53056,229.32855 h 19.336108 19.336105 l -9.668053,11.76654 -9.668052,11.76654 -9.668056,-11.76654 z"
         inkscape:transform-center-y="3.9221799"
         style="opacity:1;fill:#999999;fill-opacity:1;fill-rule:nonzero;stroke:none;stroke-width:0.96499997;stroke-linecap:butt;stroke-linejoin:miter;stroke-miterlimit:4;stroke-dasharray:none;stroke-dashoffset:0;stroke-opacity:1;paint-order:normal" />
    </g>
  </g>
</svg>
