<?xml version="1.0" encoding="UTF-8" standalone="no"?>
<svg
   xmlns:dc="http://purl.org/dc/elements/1.1/"
   xmlns:cc="http://creativecommons.org/ns#"
   xmlns:rdf="http://www.w3.org/1999/02/22-rdf-syntax-ns#"
   xmlns:svg="http://www.w3.org/2000/svg"
   xmlns="http://www.w3.org/2000/svg"
   xmlns:sodipodi="http://sodipodi.sourceforge.net/DTD/sodipodi-0.dtd"
   xmlns:inkscape="http://www.inkscape.org/namespaces/inkscape"
   id="svg8"
   version="1.1"
   viewBox="0 0 210 210"
   height="210mm"
   width="210mm"
   sodipodi:docname="DEL_N.svg"
   inkscape:version="0.92.5 (2060ec1f9f, 2020-04-08)">
  <sodipodi:namedview
     pagecolor="#ffffff"
     bordercolor="#666666"
     borderopacity="1"
     objecttolerance="10"
     gridtolerance="10"
     guidetolerance="10"
     inkscape:pageopacity="0"
     inkscape:pageshadow="2"
     inkscape:window-width="1025"
     inkscape:window-height="480"
     id="namedview8"
     showgrid="false"
     inkscape:zoom="0.29734127"
     inkscape:cx="396.85039"
     inkscape:cy="396.85039"
     inkscape:window-x="0"
     inkscape:window-y="27"
     inkscape:window-maximized="0"
     inkscape:current-layer="svg8" />
  <defs
     id="defs2" />
  <metadata
     id="metadata5">
    <rdf:RDF>
      <cc:Work
         rdf:about="">
        <dc:format>image/svg+xml</dc:format>
        <dc:type
           rdf:resource="http://purl.org/dc/dcmitype/StillImage" />
        <dc:title />
      </cc:Work>
    </rdf:RDF>
  </metadata>
  <path
     inkscape:connector-curvature="0"
     id="path817"
     style="font-style:normal;font-weight:normal;font-size:175.00260925px;line-height:1.25;font-family:sans-serif;letter-spacing:0px;word-spacing:0px;fill:#c0c0c0;fill-opacity:1;stroke:none;stroke-width:4.37506533"
     d="M 98.749907,155.00074 H 23.748788 l 32.81299,-37.50055 H 131.5629 Z M 197.67716,49.823395 c -2.05081,-4.492254 -6.54306,-7.324328 -11.42595,-7.324328 h -75.00112 c -3.61333,0 -7.03135,1.562523 -9.37514,4.296939 L 14.373649,146.7975 c -3.222705,3.71099 -4.003966,8.88685 -2.050812,13.3791 2.050812,4.49226 6.543066,7.32433 11.425951,7.32433 h 75.001119 c 3.613333,0 7.031353,-1.56252 9.375143,-4.29694 l 87.5013,-100.001489 c 3.22271,-3.710993 4.00397,-8.886852 2.05081,-13.379106 z" />
</svg>
